^D:\INERTIALLABS_SDK\SRC\ARCH\WIN32\INERTIALLABS_SERVICES.C|D:\INERTIALLABS_SDK\SRC\INTERTIALLABS_INS.C
D:\INERTIALLABS_SDK\EXAMPLES\INS_WINDOWS_CONTINUES_MODE\INS_WINDOWS_CONTINUES_MODE\DEBUG\VC142.PDB
D:\INERTIALLABS_SDK\EXAMPLES\INS_WINDOWS_CONTINUES_MODE\INS_WINDOWS_CONTINUES_MODE\DEBUG\VC142.IDB
D:\INERTIALLABS_SDK\EXAMPLES\INS_WINDOWS_CONTINUES_MODE\INS_WINDOWS_CONTINUES_MODE\DEBUG\INTERTIALLABS_INS.OBJ
D:\INERTIALLABS_SDK\EXAMPLES\INS_WINDOWS_CONTINUES_MODE\INS_WINDOWS_CONTINUES_MODE\DEBUG\INERTIALLABS_SERVICES.OBJ
^D:\INERTIALLABS_SDK\SRC\ARCH\WIN32\INERTIALLABS_SERVICES.C
D:\INERTIALLABS_SDK\EXAMPLES\INS_WINDOWS_CONTINUES_MODE\INS_WINDOWS_CONTINUES_MODE\DEBUG\VC142.PDB
^D:\INERTIALLABS_SDK\EXAMPLES\INS_WINDOWS_CONTINUES_MODE\INS_WINDOWS_CONTINUES_MODE\INS_WINDOWS_CONTINUES_MODE.CPP
D:\INERTIALLABS_SDK\EXAMPLES\INS_WINDOWS_CONTINUES_MODE\INS_WINDOWS_CONTINUES_MODE\DEBUG\VC142.PDB
D:\INERTIALLABS_SDK\EXAMPLES\INS_WINDOWS_CONTINUES_MODE\INS_WINDOWS_CONTINUES_MODE\DEBUG\VC142.IDB
D:\INERTIALLABS_SDK\EXAMPLES\INS_WINDOWS_CONTINUES_MODE\INS_WINDOWS_CONTINUES_MODE\DEBUG\INS_WINDOWS_CONTINUES_MODE.OBJ
^D:\INERTIALLABS_SDK\SRC\INERTIALLABS_INS.C
D:\INERTIALLABS_SDK\EXAMPLES\INS_WINDOWS_CONTINUES_MODE\INS_WINDOWS_CONTINUES_MODE\DEBUG\VC142.PDB
D:\INERTIALLABS_SDK\EXAMPLES\INS_WINDOWS_CONTINUES_MODE\INS_WINDOWS_CONTINUES_MODE\DEBUG\VC142.IDB
D:\INERTIALLABS_SDK\EXAMPLES\INS_WINDOWS_CONTINUES_MODE\INS_WINDOWS_CONTINUES_MODE\DEBUG\INERTIALLABS_INS.OBJ
