^D:\INERTIALLABS_SDK\EXAMPLES\IMU_WINDOWS_CONTINUES_MODE\IMU_WINDOWS_CONTINUES_MODE\DEBUG\IMU_WINDOWS_CONTINUES_MODE.OBJ|D:\INERTIALLABS_SDK\EXAMPLES\IMU_WINDOWS_CONTINUES_MODE\IMU_WINDOWS_CONTINUES_MODE\DEBUG\INERTIALLABS_IMU.OBJ|D:\INERTIALLABS_SDK\EXAMPLES\IMU_WINDOWS_CONTINUES_MODE\IMU_WINDOWS_CONTINUES_MODE\DEBUG\INERTIALLABS_SERVICES.OBJ
D:\INERTIALLABS_SDK\EXAMPLES\IMU_WINDOWS_CONTINUES_MODE\DEBUG\IMU_WINDOWS_CONTINUES_MODE.ILK
D:\INERTIALLABS_SDK\EXAMPLES\IMU_WINDOWS_CONTINUES_MODE\DEBUG\IMU_WINDOWS_CONTINUES_MODE.EXE
D:\INERTIALLABS_SDK\EXAMPLES\IMU_WINDOWS_CONTINUES_MODE\DEBUG\IMU_WINDOWS_CONTINUES_MODE.PDB
